Data/lab2x70khz.csv

ProID,Info,,time,Vol.,
GenTime,2018-08-28 17:09,,0.000000e+00,-1.270000e-01,
FileName,lab270khz.csv,,2.000000e-09,-1.300000e-01,
Record Length,14000.000000 Points,,4.000000e-09,-1.250000e-01,
Sample Interval,2.000000e-09 s,,6.000000e-09,-1.300000e-01,
Trigger Time,0.000000e+00 S,,8.000000e-09,-1.270000e-01,
Source,CH2,,1.000000e-08,-1.300000e-01,
Vertical Units,V/grid,,1.200000e-08,-1.270000e-01,
Vertical Scale,5.000000e-02,,1.400000e-08,-1.270000e-01,
Vertical Offset,-2.700000e+01,,1.600000e-08,-1.250000e-01,
Horizontal Units,s/grid,,1.800000e-08,-1.300000e-01,
Horizontal Scale,2.000000e-06,,2.000000e-08,-1.270000e-01,
Probe Atten,1.000000e+00,,2.200000e-08,-1.270000e-01,
,,,2.400000e-08,-1.250000e-01,
,,,2.600000e-08,-1.300000e-01,
,,,2.800000e-08,-1.270000e-01,
,,,3.000000e-08,-1.300000e-01,
,,,3.200000e-08,-1.250000e-01,
,,,3.400000e-08,-1.270000e-01,
,,,3.600000e-08,-1.250000e-01,
,,,3.800000e-08,-1.300000e-01,
,,,4.000000e-08,-1.250000e-01,
,,,4.200000e-08,-1.270000e-01,
,,,4.400000e-08,-1.250000e-01,
,,,4.600000e-08,-1.270000e-01,
,,,4.800000e-08,-1.250000e-01,
,,,5.000000e-08,-1.270000e-01,
,,,5.200000e-08,-1.250000e-01,
,,,5.400000e-08,-1.270000e-01,
,,,5.600000e-08,-1.250000e-01,
,,,5.800000e-08,-1.270000e-01,
,,,6.000000e-08,-1.250000e-01,
,,,6.200000e-08,-1.270000e-01,
,,,6.400000e-08,-1.250000e-01,
,,,6.600000e-08,-1.270000e-01,
,,,6.800000e-08,-1.250000e-01,
,,,7.000000e-08,-1.270000e-01,
,,,7.200000e-08,-1.250000e-01,
,,,7.400000e-08,-1.270000e-01,
,,,7.600000e-08,-1.250000e-01,
,,,7.800000e-08,-1.270000e-01,
,,,8.000000e-08,-1.250000e-01,
,,,8.200000e-08,-1.270000e-01,
,,,8.400000e-08,-1.250000e-01,
,,,8.600000e-08,-1.270000e-01,
,,,8.800000e-08,-1.250000e-01,
,,,9.000000e-08,-1.270000e-01,
,,,9.200000e-08,-1.250000e-01,
,,,9.400000e-08,-1.270000e-01,
,,,9.600000e-08,-1.250000e-01,
,,,9.800000e-08,-1.270000e-01,
,,,1.000000e-07,-1.250000e-01,
,,,1.020000e-07,-1.270000e-01,
,,,1.040000e-07,-1.250000e-01,
,,,1.060000e-07,-1.270000e-01,
,,,1.080000e-07,-1.250000e-01,
,,,1.100000e-07,-1.270000e-01,
,,,1.120000e-07,-1.250000e-01,
,,,1.140000e-07,-1.270000e-01,
,,,1.160000e-07,-1.250000e-01,
,,,1.180000e-07,-1.270000e-01,
,,,1.200000e-07,-1.250000e-01,
,,,1.220000e-07,-1.270000e-01,
,,,1.240000e-07,-1.250000e-01,
,,,1.260000e-07,-1.270000e-01,
,,,1.280000e-07,-1.250000e-01,
,,,1.300000e-07,-1.270000e-01,
,,,1.320000e-07,-1.250000e-01,
,,,1.340000e-07,-1.270000e-01,
,,,1.360000e-07,-1.250000e-01,
,,,1.380000e-07,-1.270000e-01,
,,,1.400000e-07,-1.250000e-01,
,,,1.420000e-07,-1.270000e-01,
,,,1.440000e-07,-1.250000e-01,
,,,1.460000e-07,-1.270000e-01,
,,,1.480000e-07,-1.250000e-01,
,,,1.500000e-07,-1.270000e-01,
,,,1.520000e-07,-1.250000e-01,
,,,1.540000e-07,-1.270000e-01,
,,,1.560000e-07,-1.250000e-01,
,,,1.580000e-07,-1.270000e-01,
,,,1.600000e-07,-1.250000e-01,
,,,1.620000e-07,-1.270000e-01,
,,,1.640000e-07,-1.250000e-01,
,,,1.660000e-07,-1.270000e-01,
,,,1.680000e-07,-1.250000e-01,
,,,1.700000e-07,-1.270000e-01,
,,,1.720000e-07,-1.250000e-01,
,,,1.740000e-07,-1.270000e-01,
,,,1.760000e-07,-1.250000e-01,
,,,1.780000e-07,-1.270000e-01,
,,,1.800000e-07,-1.250000e-01,
,,,1.820000e-07,-1.270000e-01,
,,,1.840000e-07,-1.250000e-01,
,,,1.860000e-07,-1.270000e-01,
,,,1.880000e-07,-1.250000e-01,
,,,1.900000e-07,-1.250000e-01,
,,,1.920000e-07,-1.230000e-01,
,,,1.940000e-07,-1.270000e-01,
,,,1.960000e-07,-1.250000e-01,
,,,1.980000e-07,-1.270000e-01,
,,,2.000000e-07,-1.230000e-01,
,,,2.020000e-07,-1.250000e-01,
,,,2.040000e-07,-1.230000e-01,
,,,2.060000e-07,-1.270000e-01,
,,,2.080000e-07,-1.230000e-01,
,,,2.100000e-07,-1.250000e-01,
,,,2.120000e-07,-1.230000e-01,
,,,2.140000e-07,-1.270000e-01,
,,,2.160000e-07,-1.230000e-01,
,,,2.180000e-07,-1.250000e-01,
,,,2.200000e-07,-1.230000e-01,
,,,2.220000e-07,-1.250000e-01,
,,,2.240000e-07,-1.230000e-01,
,,,2.260000e-07,-1.250000e-01,
,,,2.280000e-07,-1.230000e-01,
,,,2.300000e-07,-1.250000e-01,
,,,2.320000e-07,-1.230000e-01,
,,,2.340000e-07,-1.250000e-01,
,,,2.360000e-07,-1.230000e-01,
,,,2.380000e-07,-1.250000e-01,
,,,2.400000e-07,-1.230000e-01,
,,,2.420000e-07,-1.250000e-01,
,,,2.440000e-07,-1.230000e-01,
,,,2.460000e-07,-1.250000e-01,
,,,2.480000e-07,-1.230000e-01,
,,,2.500000e-07,-1.250000e-01,
,,,2.520000e-07,-1.230000e-01,
,,,2.540000e-07,-1.250000e-01,
,,,2.560000e-07,-1.230000e-01,
,,,2.580000e-07,-1.250000e-01,
,,,2.600000e-07,-1.230000e-01,
,,,2.620000e-07,-1.250000e-01,
,,,2.640000e-07,-1.230000e-01,
,,,2.660000e-07,-1.250000e-01,
,,,2.680000e-07,-1.230000e-01,
,,,2.700000e-07,-1.250000e-01,
,,,2.720000e-07,-1.230000e-01,
,,,2.740000e-07,-1.250000e-01,
,,,2.760000e-07,-1.230000e-01,
,,,2.780000e-07,-1.250000e-01,
,,,2.800000e-07,-1.230000e-01,
,,,2.820000e-07,-1.250000e-01,
,,,2.840000e-07,-1.230000e-01,
,,,2.860000e-07,-1.250000e-01,
,,,2.880000e-07,-1.230000e-01,
,,,2.900000e-07,-1.250000e-01,
,,,2.920000e-07,-1.230000e-01,
,,,2.940000e-07,-1.250000e-01,
,,,2.960000e-07,-1.230000e-01,
,,,2.980000e-07,-1.250000e-01,
,,,3.000000e-07,-1.230000e-01,
,,,3.020000e-07,-1.250000e-01,
,,,3.040000e-07,-1.230000e-01,
,,,3.060000e-07,-1.250000e-01,
,,,3.080000e-07,-1.210000e-01,
,,,3.100000e-07,-1.250000e-01,
,,,3.120000e-07,-1.230000e-01,
,,,3.140000e-07,-1.250000e-01,
,,,3.160000e-07,-1.230000e-01,
,,,3.180000e-07,-1.250000e-01,
,,,3.200000e-07,-1.210000e-01,
,,,3.220000e-07,-1.250000e-01,
,,,3.240000e-07,-1.230000e-01,
,,,3.260000e-07,-1.250000e-01,
,,,3.280000e-07,-1.210000e-01,
,,,3.300000e-07,-1.230000e-01,
,,,3.320000e-07,-1.210000e-01,
,,,3.340000e-07,-1.250000e-01,
,,,3.360000e-07,-1.210000e-01,
,,,3.380000e-07,-1.230000e-01,
,,,3.400000e-07,-1.210000e-01,
,,,3.420000e-07,-1.230000e-01,
,,,3.440000e-07,-1.210000e-01,
,,,3.460000e-07,-1.230000e-01,
,,,3.480000e-07,-1.210000e-01,
,,,3.500000e-07,-1.230000e-01,
,,,3.520000e-07,-1.210000e-01,
,,,3.540000e-07,-1.230000e-01,
,,,3.560000e-07,-1.210000e-01,
,,,3.580000e-07,-1.230000e-01,
,,,3.600000e-07,-1.210000e-01,
,,,3.620000e-07,-1.230000e-01,
,,,3.640000e-07,-1.210000e-01,
,,,3.660000e-07,-1.230000e-01,
,,,3.680000e-07,-1.210000e-01,
,,,3.700000e-07,-1.230000e-01,
,,,3.720000e-07,-1.210000e-01,
,,,3.740000e-07,-1.230000e-01,
,,,3.760000e-07,-1.210000e-01,
,,,3.780000e-07,-1.230000e-01,
,,,3.800000e-07,-1.210000e-01,
,,,3.820000e-07,-1.230000e-01,
,,,3.840000e-07,-1.210000e-01,
,,,3.860000e-07,-1.230000e-01,
,,,3.880000e-07,-1.210000e-01,
,,,3.900000e-07,-1.230000e-01,
,,,3.920000e-07,-1.210000e-01,
,,,3.940000e-07,-1.230000e-01,
,,,3.960000e-07,-1.210000e-01,
,,,3.980000e-07,-1.230000e-01,
,,,4.000000e-07,-1.210000e-01,
,,,4.020000e-07,-1.230000e-01,
,,,4.040000e-07,-1.210000e-01,
,,,4.060000e-07,-1.230000e-01,
,,,4.080000e-07,-1.210000e-01,
,,,4.100000e-07,-1.230000e-01,
,,,4.120000e-07,-1.210000e-01,
,,,4.140000e-07,-1.230000e-01,
,,,4.160000e-07,-1.210000e-01,
,,,4.180000e-07,-1.230000e-01,
,,,4.200000e-07,-1.210000e-01,
,,,4.220000e-07,-1.230000e-01,
,,,4.240000e-07,-1.180000e-01,
,,,4.260000e-07,-1.230000e-01,
,,,4.280000e-07,-1.210000e-01,
,,,4.300000e-07,-1.230000e-01,
,,,4.320000e-07,-1.210000e-01,
,,,4.340000e-07,-1.230000e-01,
,,,4.360000e-07,-1.180000e-01,
,,,4.380000e-07,-1.230000e-01,
,,,4.400000e-07,-1.210000e-01,
,,,4.420000e-07,-1.230000e-01,
,,,4.440000e-07,-1.180000e-01,
,,,4.460000e-07,-1.210000e-01,
,,,4.480000e-07,-1.180000e-01,
,,,4.500000e-07,-1.230000e-01,
,,,4.520000e-07,-1.180000e-01,
,,,4.540000e-07,-1.210000e-01,
,,,4.560000e-07,-1.180000e-01,
,,,4.580000e-07,-1.210000e-01,
,,,4.600000e-07,-1.180000e-01,
,,,4.620000e-07,-1.210000e-01,
,,,4.640000e-07,-1.180000e-01,
,,,4.660000e-07,-1.210000e-01,
,,,4.680000e-07,-1.180000e-01,
,,,4.700000e-07,-1.210000e-01,
,,,4.720000e-07,-1.180000e-01,
,,,4.740000e-07,-1.210000e-01,
,,,4.760000e-07,-1.180000e-01,
,,,4.780000e-07,-1.210000e-01,
,,,4.800000e-07,-1.180000e-01,
,,,4.820000e-07,-1.210000e-01,
,,,4.840000e-07,-1.180000e-01,
,,,4.860000e-07,-1.210000e-01,
,,,4.880000e-07,-1.180000e-01,
,,,4.900000e-07,-1.210000e-01,
,,,4.920000e-07,-1.180000e-01,
,,,4.940000e-07,-1.210000e-01,
,,,4.960000e-07,-1.180000e-01,
,,,4.980000e-07,-1.210000e-01,
,,,5.000000e-07,-1.180000e-01,
,,,5.020000e-07,-1.210000e-01,
,,,5.040000e-07,-1.180000e-01,
,,,5.060000e-07,-1.210000e-01,
,,,5.080000e-07,-1.180000e-01,
,,,5.100000e-07,-1.210000e-01,
,,,5.120000e-07,-1.180000e-01,
,,,5.140000e-07,-1.210000e-01,
,,,5.160000e-07,-1.180000e-01,
,,,5.180000e-07,-1.210000e-01,
,,,5.200000e-07,-1.180000e-01,
,,,5.220000e-07,-1.210000e-01,
,,,5.240000e-07,-1.180000e-01,
,,,5.260000e-07,-1.210000e-01,
,,,5.280000e-07,-1.160000e-01,
,,,5.300000e-07,-1.210000e-01,
,,,5.320000e-07,-1.160000e-01,
,,,5.340000e-07,-1.180000e-01,
,,,5.360000e-07,-1.160000e-01,
,,,5.380000e-07,-1.210000e-01,
,,,5.400000e-07,-1.180000e-01,
,,,5.420000e-07,-1.180000e-01,
,,,5.440000e-07,-1.160000e-01,
,,,5.460000e-07,-1.180000e-01,
,,,5.480000e-07,-1.160000e-01,
,,,5.500000e-07,-1.210000e-01,
,,,5.520000e-07,-1.160000e-01,
,,,5.540000e-07,-1.180000e-01,
,,,5.560000e-07,-1.160000e-01,
,,,5.580000e-07,-1.180000e-01,
,,,5.600000e-07,-1.160000e-01,
,,,5.620000e-07,-1.180000e-01,
,,,5.640000e-07,-1.160000e-01,
,,,5.660000e-07,-1.180000e-01,
,,,5.680000e-07,-1.160000e-01,
,,,5.700000e-07,-1.180000e-01,
,,,5.720000e-07,-1.160000e-01,
,,,5.740000e-07,-1.180000e-01,
,,,5.760000e-07,-1.160000e-01,
,,,5.780000e-07,-1.180000e-01,
,,,5.800000e-07,-1.160000e-01,
,,,5.820000e-07,-1.180000e-01,
,,,5.840000e-07,-1.160000e-01,
,,,5.860000e-07,-1.180000e-01,
,,,5.880000e-07,-1.160000e-01,
,,,5.900000e-07,-1.180000e-01,
,,,5.920000e-07,-1.160000e-01,
,,,5.940000e-07,-1.180000e-01,
,,,5.960000e-07,-1.160000e-01,
,,,5.980000e-07,-1.180000e-01,
,,,6.000000e-07,-1.160000e-01,
,,,6.020000e-07,-1.180000e-01,
,,,6.040000e-07,-1.160000e-01,
,,,6.060000e-07,-1.180000e-01,
,,,6.080000e-07,-1.160000e-01,
,,,6.100000e-07,-1.180000e-01,
,,,6.120000e-07,-1.160000e-01,
,,,6.140000e-07,-1.180000e-01,
,,,6.160000e-07,-1.160000e-01,
,,,6.180000e-07,-1.180000e-01,
,,,6.200000e-07,-1.160000e-01,
,,,6.220000e-07,-1.180000e-01,
,,,6.240000e-07,-1.140000e-01,
,,,6.260000e-07,-1.180000e-01,
,,,6.280000e-07,-1.160000e-01,
,,,6.300000e-07,-1.180000e-01,
,,,6.320000e-07,-1.140000e-01,
,,,6.340000e-07,-1.160000e-01,
,,,6.360000e-07,-1.140000e-01,
,,,6.380000e-07,-1.160000e-01,
,,,6.400000e-07,-1.140000e-01,
,,,6.420000e-07,-1.160000e-01,
,,,6.440000e-07,-1.140000e-01,
,,,6.460000e-07,-1.160000e-01,
,,,6.480000e-07,-1.140000e-01,
,,,6.500000e-07,-1.160000e-01,
,,,6.520000e-07,-1.140000e-01,
,,,6.540000e-07,-1.160000e-01,
,,,6.560000e-07,-1.140000e-01,
,,,6.580000e-07,-1.160000e-01,
,,,6.600000e-07,-1.140000e-01,
,,,6.620000e-07,-1.160000e-01,
,,,6.640000e-07,-1.140000e-01,
,,,6.660000e-07,-1.160000e-01,
,,,6.680000e-07,-1.140000e-01,
,,,6.700000e-07,-1.160000e-01,
,,,6.720000e-07,-1.140000e-01,
,,,6.740000e-07,-1.160000e-01,
,,,6.760000e-07,-1.140000e-01,
,,,6.780000e-07,-1.160000e-01,
,,,6.800000e-07,-1.140000e-01,
,,,6.820000e-07,-1.160000e-01,
,,,6.840000e-07,-1.140000e-01,
,,,6.860000e-07,-1.160000e-01,
,,,6.880000e-07,-1.140000e-01,
,,,6.900000e-07,-1.160000e-01,
,,,6.920000e-07,-1.140000e-01,
,,,6.940000e-07,-1.160000e-01,
,,,6.960000e-07,-1.140000e-01,
,,,6.980000e-07,-1.160000e-01,
,,,7.000000e-07,-1.140000e-01,
,,,7.020000e-07,-1.160000e-01,
,,,7.040000e-07,-1.140000e-01,
,,,7.060000e-07,-1.160000e-01,
,,,7.080000e-07,-1.110000e-01,
,,,7.100000e-07,-1.140000e-01,
,,,7.120000e-07,-1.110000e-01,
,,,7.140000e-07,-1.160000e-01,
,,,7.160000e-07,-1.110000e-01,
,,,7.180000e-07,-1.160000e-01,
,,,7.200000e-07,-1.110000e-01,
,,,7.220000e-07,-1.140000e-01,
,,,7.240000e-07,-1.110000e-01,
,,,7.260000e-07,-1.160000e-01,
,,,7.280000e-07,-1.110000e-01,
,,,7.300000e-07,-1.140000e-01,
,,,7.320000e-07,-1.110000e-01,
,,,7.340000e-07,-1.140000e-01,
,,,7.360000e-07,-1.110000e-01,
,,,7.380000e-07,-1.140000e-01,
,,,7.400000e-07,-1.110000e-01,
,,,7.420000e-07,-1.140000e-01,
,,,7.440000e-07,-1.110000e-01,
,,,7.460000e-07,-1.140000e-01,
,,,7.480000e-07,-1.110000e-01,
,,,7.500000e-07,-1.140000e-01,
,,,7.520000e-07,-1.110000e-01,
,,,7.540000e-07,-1.140000e-01,
,,,7.560000e-07,-1.110000e-01,
,,,7.580000e-07,-1.140000e-01,
,,,7.600000e-07,-1.110000e-01,
,,,7.620000e-07,-1.140000e-01,
,,,7.640000e-07,-1.110000e-01,
,,,7.660000e-07,-1.140000e-01,
,,,7.680000e-07,-1.110000e-01,
,,,7.700000e-07,-1.140000e-01,
,,,7.720000e-07,-1.110000e-01,
,,,7.740000e-07,-1.140000e-01,
,,,7.760000e-07,-1.110000e-01,
,,,7.780000e-07,-1.140000e-01,
,,,7.800000e-07,-1.090000e-01,
,,,7.820000e-07,-1.140000e-01,
,,,7.840000e-07,-1.110000e-01,
,,,7.860000e-07,-1.140000e-01,
,,,7.880000e-07,-1.090000e-01,
,,,7.900000e-07,-1.110000e-01,
,,,7.920000e-07,-1.090000e-01,
,,,7.940000e-07,-1.140000e-01,
,,,7.960000e-07,-1.110000e-01,
,,,7.980000e-07,-1.110000e-01,
,,,8.000000e-07,-1.090000e-01,
,,,8.020000e-07,-1.110000e-01,
,,,8.040000e-07,-1.110000e-01,
,,,8.060000e-07,-1.140000e-01,
,,,8.080000e-07,-1.090000e-01,
,,,8.100000e-07,-1.110000e-01,
,,,8.120000e-07,-1.090000e-01,
,,,8.140000e-07,-1.110000e-01,
,,,8.160000e-07,-1.090000e-01,
,,,8.180000e-07,-1.110000e-01,
,,,8.200000e-07,-1.090000e-01,
,,,8.220000e-07,-1.110000e-01,
,,,8.240000e-07,-1.090000e-01,
,,,8.260000e-07,-1.110000e-01,
,,,8.280000e-07,-1.090000e-01,
,,,8.300000e-07,-1.110000e-01,
,,,8.320000e-07,-1.090000e-01,
,,,8.340000e-07,-1.110000e-01,
,,,8.360000e-07,-1.090000e-01,
,,,8.380000e-07,-1.110000e-01,
,,,8.400000e-07,-1.090000e-01,
,,,8.420000e-07,-1.110000e-01,
,,,8.440000e-07,-1.090000e-01,
,,,8.460000e-07,-1.110000e-01,
,,,8.480000e-07,-1.090000e-01,
,,,8.500000e-07,-1.110000e-01,
,,,8.520000e-07,-1.090000e-01,
,,,8.540000e-07,-1.110000e-01,
,,,8.560000e-07,-1.090000e-01,
,,,8.580000e-07,-1.110000e-01,
,,,8.600000e-07,-1.090000e-01,
,,,8.620000e-07,-1.110000e-01,
,,,8.640000e-07,-1.090000e-01,
,,,8.660000e-07,-1.110000e-01,
,,,8.680000e-07,-1.070000e-01,
,,,8.700000e-07,-1.090000e-01,
,,,8.720000e-07,-1.070000e-01,
,,,8.740000e-07,-1.110000e-01,
,,,8.760000e-07,-1.070000e-01,
,,,8.780000e-07,-1.090000e-01,
,,,8.800000e-07,-1.070000e-01,
,,,8.820000e-07,-1.090000e-01,
,,,8.840000e-07,-1.070000e-01,
,,,8.860000e-07,-1.090000e-01,
,,,8.880000e-07,-1.070000e-01,
,,,8.900000e-07,-1.090000e-01,
,,,8.920000e-07,-1.070000e-01,
,,,8.940000e-07,-1.090000e-01,
,,,8.960000e-07,-1.070000e-01,
,,,8.980000e-07,-1.090000e-01,
,,,9.000000e-07,-1.070000e-01,
,,,9.020000e-07,-1.090000e-01,
,,,9.040000e-07,-1.070000e-01,
,,,9.060000e-07,-1.090000e-01,
,,,9.080000e-07,-1.070000e-01,
,,,9.100000e-07,-1.090000e-01,
,,,9.120000e-07,-1.070000e-01,
,,,9.140000e-07,-1.090000e-01,
,,,9.160000e-07,-1.070000e-01,
,,,9.180000e-07,-1.090000e-01,
,,,9.200000e-07,-1.070000e-01,
,,,9.220000e-07,-1.090000e-01,
,,,9.240000e-07,-1.070000e-01,
,,,9.260000e-07,-1.090000e-01,
,,,9.280000e-07,-1.070000e-01,
,,,9.300000e-07,-1.090000e-01,
,,,9.320000e-07,-1.070000e-01,
,,,9.340000e-07,-1.090000e-01,
,,,9.360000e-07,-1.050000e-01,
,,,9.380000e-07,-1.090000e-01,
,,,9.400000e-07,-1.070000e-01,
,,,9.420000e-07,-1.090000e-01,
,,,9.440000e-07,-1.050000e-01,
,,,9.460000e-07,-1.070000e-01,
,,,9.480000e-07,-1.050000e-01,
,,,9.500000e-07,-1.090000e-01,
,,,9.520000e-07,-1.050000e-01,
,,,9.540000e-07,-1.070000e-01,
,,,9.560000e-07,-1.050000e-01,
,,,9.580000e-07,-1.070000e-01,
,,,9.600000e-07,-1.050000e-01,
,,,9.620000e-07,-1.070000e-01,
,,,9.640000e-07,-1.050000e-01,
,,,9.660000e-07,-1.070000e-01,
,,,9.680000e-07,-1.050000e-01,
,,,9.700000e-07,-1.070000e-01,
,,,9.720000e-07,-1.050000e-01,
,,,9.740000e-07,-1.070000e-01,
,,,9.760000e-07,-1.050000e-01,
,,,9.780000e-07,-1.070000e-01,
,,,9.800000e-07,-1.050000e-01,
,,,9.820000e-07,-1.070000e-01,
,,,9.840000e-07,-1.050000e-01,
,,,9.860000e-07,-1.070000e-01,
,,,9.880000e-07,-1.050000e-01,
,,,9.900000e-07,-1.070000e-01,
,,,9.920000e-07,-1.050000e-01,
,,,9.940000e-07,-1.070000e-01,
,,,9.960000e-07,-1.020000e-01,
,,,9.980000e-07,-1.070000e-01,
,,,1.000000e-06,-1.050000e-01,
,,,1.002000e-06,-1.070000e-01,
,,,1.004000e-06,-1.020000e-01,
,,,1.006000e-06,-1.050000e-01,
,,,1.008000e-06,-1.050000e-01,
,,,1.010000e-06,-1.070000e-01,
,,,1.012000e-06,-1.050000e-01,
,,,1.014000e-06,-1.050000e-01,
,,,1.016000e-06,-1.020000e-01,
,,,1.018000e-06,-1.050000e-01,
,,,1.020000e-06,-1.020000e-01,
,,,1.022000e-06,-1.070000e-01,
,,,1.024000e-06,-1.020000e-01,
,,,1.026000e-06,-1.050000e-01,
,,,1.028000e-06,-1.020000e-01,
,,,1.030000e-06,-1.050000e-01,
,,,1.032000e-06,-1.020000e-01,
,,,1.034000e-06,-1.050000e-01,
,,,1.036000e-06,-1.020000e-01,
,,,1.038000e-06,-1.050000e-01,
,,,1.040000e-06,-1.020000e-01,
,,,1.042000e-06,-1.050000e-01,
,,,1.044000e-06,-1.020000e-01,
,,,1.046000e-06,-1.050000e-01,
,,,1.048000e-06,-1.020000e-01,
,,,1.050000e-06,-1.050000e-01,
,,,1.052000e-06,-1.020000e-01,
,,,1.054000e-06,-1.050000e-01,
,,,1.056000e-06,-1.020000e-01,
,,,1.058000e-06,-1.050000e-01,
,,,1.060000e-06,-1.020000e-01,
,,,1.062000e-06,-1.050000e-01,
,,,1.064000e-06,-1.020000e-01,
,,,1.066000e-06,-1.050000e-01,
,,,1.068000e-06,-1.020000e-01,
,,,1.070000e-06,-1.050000e-01,
,,,1.072000e-06,-1.020000e-01,
,,,1.074000e-06,-1.020000e-01,
,,,1.076000e-06,-1.000000e-01,
,,,1.078000e-06,-1.050000e-01,
,,,1.080000e-06,-1.000000e-01,
,,,1.082000e-06,-1.020000e-01,
,,,1.084000e-06,-1.000000e-01,
,,,1.086000e-06,-1.020000e-01,
,,,1.088000e-06,-1.000000e-01,
,,,1.090000e-06,-1.020000e-01,
,,,1.092000e-06,-1.000000e-01,
,,,1.094000e-06,-1.020000e-01,
,,,1.096000e-06,-1.000000e-01,
,,,1.098000e-06,-1.020000e-01,
,,,1.100000e-06,-1.000000e-01,
,,,1.102000e-06,-1.020000e-01,
,,,1.104000e-06,-1.000000e-01,
,,,1.106000e-06,-1.020000e-01,
,,,1.108000e-06,-1.000000e-01,
,,,1.110000e-06,-1.020000e-01,
,,,1.112000e-06,-1.000000e-01,
,,,1.114000e-06,-1.020000e-01,
,,,1.116000e-06,-1.000000e-01,
,,,1.118000e-06,-1.020000e-01,
,,,1.120000e-06,-1.000000e-01,
,,,1.122000e-06,-1.020000e-01,
,,,1.124000e-06,-1.000000e-01,
,,,1.126000e-06,-1.020000e-01,
,,,1.128000e-06,-1.000000e-01,
,,,1.130000e-06,-1.020000e-01,
,,,1.132000e-06,-9.800000e-02,
,,,1.134000e-06,-1.020000e-01,
,,,1.136000e-06,-1.000000e-01,
,,,1.138000e-06,-1.020000e-01,
,,,1.140000e-06,-1.000000e-01,
,,,1.142000e-06,-1.000000e-01,
,,,1.144000e-06,-9.800000e-02,
,,,1.146000e-06,-1.020000e-01,
,,,1.148000e-06,-9.800000e-02,
,,,1.150000e-06,-1.000000e-01,
,,,1.152000e-06,-9.800000e-02,
,,,1.154000e-06,-1.000000e-01,
,,,1.156000e-06,-9.800000e-02,
,,,1.158000e-06,-1.000000e-01,
,,,1.160000e-06,-9.800000e-02,
,,,1.162000e-06,-1.000000e-01,
,,,1.164000e-06,-9.800000e-02,
,,,1.166000e-06,-1.000000e-01,
,,,1.168000e-06,-9.800000e-02,
,,,1.170000e-06,-1.000000e-01,
,,,1.172000e-06,-9.800000e-02,
,,,1.174000e-06,-1.000000e-01,
,,,1.176000e-06,-9.800000e-02,
,,,1.178000e-06,-1.000000e-01,
,,,1.180000e-06,-9.800000e-02,
,,,1.182000e-06,-1.000000e-01,
,,,1.184000e-06,-9.800000e-02,
,,,1.186000e-06,-1.000000e-01,
,,,1.188000e-06,-9.800000e-02,
,,,1.190000e-06,-1.000000e-01,
,,,1.192000e-06,-9.600000e-02,
,,,1.194000e-06,-1.000000e-01,
,,,1.196000e-06,-9.800000e-02,
,,,1.198000e-06,-1.000000e-01,
,,,1.200000e-06,-9.800000e-02,
,,,1.202000e-06,-9.800000e-02,
,,,1.204000e-06,-9.600000e-02,
,,,1.206000e-06,-1.000000e-01,
,,,1.208000e-06,-9.600000e-02,
,,,1.210000e-06,-9.800000e-02,
,,,1.212000e-06,-9.600000e-02,
,,,1.214000e-06,-9.800000e-02,
,,,1.216000e-06,-9.600000e-02,
,,,1.218000e-06,-9.800000e-02,
,,,1.220000e-06,-9.600000e-02,
,,,1.222000e-06,-9.800000e-02,
,,,1.224000e-06,-9.600000e-02,
,,,1.226000e-06,-9.800000e-02,
,,,1.228000e-06,-9.600000e-02,
,,,1.230000e-06,-9.800000e-02,
,,,1.232000e-06,-9.600000e-02,
,,,1.234000e-06,-9.800000e-02,
,,,1.236000e-06,-9.600000e-02,
,,,1.238000e-06,-9.800000e-02,
,,,1.240000e-06,-9.600000e-02,
,,,1.242000e-06,-9.800000e-02,
,,,1.244000e-06,-9.600000e-02,
,,,1.246000e-06,-9.800000e-02,
,,,1.248000e-06,-9.600000e-02,
,,,1.250000e-06,-9.800000e-02,
,,,1.252000e-06,-9.600000e-02,
,,,1.254000e-06,-9.800000e-02,
,,,1.256000e-06,-9.600000e-02,
,,,1.258000e-06,-9.800000e-02,
,,,1.260000e-06,-9.300000e-02,
,,,1.262000e-06,-9.800000e-02,
,,,1.264000e-06,-9.300000e-02,
,,,1.266000e-06,-9.800000e-02,
,,,1.268000e-06,-9.300000e-02,
